\relax 
\providecommand\hyper@newdestlabel[2]{}
\catcode `"\active 
\catcode `<\active 
\catcode `>\active 
\@nameuse{es@quoting}
\providecommand\HyperFirstAtBeginDocument{\AtBeginDocument}
\HyperFirstAtBeginDocument{\ifx\hyper@anchor\@undefined
\global\let\oldcontentsline\contentsline
\gdef\contentsline#1#2#3#4{\oldcontentsline{#1}{#2}{#3}}
\global\let\oldnewlabel\newlabel
\gdef\newlabel#1#2{\newlabelxx{#1}#2}
\gdef\newlabelxx#1#2#3#4#5#6{\oldnewlabel{#1}{{#2}{#3}}}
\AtEndDocument{\ifx\hyper@anchor\@undefined
\let\contentsline\oldcontentsline
\let\newlabel\oldnewlabel
\fi}
\fi}
\global\let\hyper@last\relax 
\gdef\HyperFirstAtBeginDocument#1{#1}
\providecommand\HyField@AuxAddToFields[1]{}
\providecommand\HyField@AuxAddToCoFields[2]{}
\bibstyle{es-alpha}
\reset@newl@bel
\select@language{spanish}
\@writefile{toc}{\select@language{spanish}}
\@writefile{lof}{\select@language{spanish}}
\@writefile{lot}{\select@language{spanish}}
\@writefile{toc}{\contentsline {chapter}{Resumen}{\es@scroman  {v}}{chapter*.1}}
\@writefile{lof}{\addvspace {10\p@ }}
\@writefile{lot}{\addvspace {10\p@ }}
\@writefile{toc}{\contentsline {chapter}{Abstract}{\es@scroman  {vii}}{chapter*.2}}
\@writefile{lof}{\addvspace {10\p@ }}
\@writefile{lot}{\addvspace {10\p@ }}
\@writefile{toc}{\contentsline {chapter}{Agradecimientos}{\es@scroman  {ix}}{chapter*.3}}
\@writefile{lof}{\addvspace {10\p@ }}
\@writefile{lot}{\addvspace {10\p@ }}
\@writefile{toc}{\contentsline {chapter}{\'Indice general}{\es@scroman  {xiii}}{chapter*.4}}
\@writefile{toc}{\contentsline {chapter}{\'{I}ndice de cuadros}{\es@scroman  {xvii}}{chapter*.5}}
\@writefile{toc}{\contentsline {chapter}{\'{I}ndice de figuras}{\es@scroman  {xix}}{chapter*.6}}
\citation{AlgoritmosHormigas}
\citation{ControllingFormations}
\citation{ControllingFormations}
\@writefile{toc}{\contentsline {chapter}{\IeC {\'I}ndice de listados}{\es@scroman  {xxiii}}{chapter*.7}}
\@writefile{toc}{\contentsline {chapter}{Listado de acr\IeC {\'o}nimos}{\es@scroman  {xxv}}{chapter*.8}}
\@writefile{lof}{\addvspace {10\p@ }}
\@writefile{lot}{\addvspace {10\p@ }}
\newacro{IA}[\AC@hyperlink{IA}{IA}]{Inteligencia Artificial}
\newacro{SMA}[\AC@hyperlink{SMA}{SMA}]{Sistemas Multiagentes}
\newacro{AVRDUDE}[\AC@hyperlink{AVRDUDE}{AVRDUDE}]{AVR Downloader Uploader}
\newacro{PROM}[\AC@hyperlink{PROM}{PROM}]{Programmable read-only memory}
\newacro{EEPROM}[\AC@hyperlink{EEPROM}{EEPROM}]{Electrically Erasable Programmable read-only memory}
\newacro{OHC}[\AC@hyperlink{OHC}{OHC}]{Overhead Controller}
\newacro{GCC}[\AC@hyperlink{GCC}{GCC}]{GNU Compiler Collection}
\newacro{GNU}[\AC@hyperlink{GNU}{GNU}]{GNU is not UNIX}
\newacro{GPL}[\AC@hyperlink{GPL}{GPL}]{General Public License}
\newacro{SVG}[\AC@hyperlink{SVG}{SVG}]{Scalable Vector Graphics}
\newacro{HTML}[\AC@hyperlink{HTML}{HTML}]{HyperText Markup Language}
\newacro{UML}[\AC@hyperlink{UML}{UML}]{Unified Modeling Language}
\newacro{ER}[\AC@hyperlink{ER}{ER}]{Modelo Entidad-Relaci\IeC {\'o}n}
\newacro{UNCOL}[\AC@hyperlink{UNCOL}{UNCOL}]{Universal Computer Oriented Language}
\newacro{RIA}[\AC@hyperlink{RIA}{RIA}]{Robot Industries Association}
\newacro{EC}[\AC@hyperlink{EC}{EC}]{Evolutionary Computing}
\newacro{IEEE}[\AC@hyperlink{IEEE}{IEEE}]{Institute of Electical and Electronics Engineers}
\newacro{PSO}[\AC@hyperlink{PSO}{PSO}]{Particle Swarm Optimization}
\newacro{ACO}[\AC@hyperlink{ACO}{ACO}]{Ant Colony Optimization}
\newacro{S-ACO}[\AC@hyperlink{S-ACO}{S-ACO}]{Simplest Ant Colony Optimization}
\newacro{TSP}[\AC@hyperlink{TSP}{TSP}]{Travelling Salesman Problem}
\newacro{DAI}[\AC@hyperlink{DAI}{DAI}]{Distributed Artificial Intelligence}
\newacro{RHC}[\AC@hyperlink{RHC}{RHC}]{Retroceso del Horizonte de Control}
\newacro{API}[\AC@hyperlink{API}{API}]{Application Programming Interface}
\newacro{FTDI}[\AC@hyperlink{FTDI}{FTDI}]{Future Technology Devices International}
\newacro{USB}[\AC@hyperlink{USB}{USB}]{Universal Serial Bus}
\newacro{LED}[\AC@hyperlink{LED}{LED}]{Light-Emitting Diode}
\@writefile{toc}{\contentsline {chapter}{\numberline {1}Introducci\IeC {\'o}n}{1}{chapter.1}}
\@writefile{lof}{\addvspace {10\p@ }}
\@writefile{lot}{\addvspace {10\p@ }}
\newlabel{chap:Introduccion}{{1}{1}{Introducción}{chapter.1}{}}
\citation{Inteligencia}
\citation{Agents}
\@writefile{toc}{\contentsline {section}{\numberline {1.1}Inteligencia Artificial}{2}{section.1.1}}
\acronymused{IA}
\newlabel{tab:enfoquesIA}{{1.1}{2}{Inteligencia Artificial}{section.1.1}{}}
\@writefile{lot}{\contentsline {table}{\numberline {1.1}{\ignorespaces Enfoques hist\IeC {\'o}ricos de la Inteligencia Artificial}}{2}{table.1.1}}
\newlabel{tab:IA}{{1.1}{3}{Inteligencia Artificial}{table.1.1}{}}
\@writefile{lot}{\contentsline {table}{\numberline {1.2}{\ignorespaces Definiciones de Inteligencia Artificial asociadas a los diferentes enfoques}}{3}{table.1.2}}
\@writefile{toc}{\contentsline {section}{\numberline {1.2}Teor\IeC {\'\i }a de Agentes}{3}{section.1.2}}
\citation{robots}
\@writefile{lof}{\contentsline {figure}{\numberline {1.1}{\ignorespaces Ejemplo de Agente Inteligente}}{4}{figure.1.1}}
\newlabel{fig:agente}{{1.1}{4}{Ejemplo de Agente Inteligente}{figure.1.1}{}}
\acronymused{SMA}
\@writefile{toc}{\contentsline {section}{\numberline {1.3}Rob\IeC {\'o}tica}{4}{section.1.3}}
\citation{clasr}
\acronymused{RIA}
\@writefile{lof}{\contentsline {figure}{\numberline {1.2}{\ignorespaces Robot Manipulador de Primera Generaci\IeC {\'o}n}}{7}{figure.1.2}}
\newlabel{Manipulador}{{1.2}{7}{Robot Manipulador de Primera Generación}{figure.1.2}{}}
\@writefile{lof}{\contentsline {figure}{\numberline {1.3}{\ignorespaces Robot de Aprendizaje de Segunda Generaci\IeC {\'o}n}}{7}{figure.1.3}}
\newlabel{RobotAprendizaje}{{1.3}{7}{Robot de Aprendizaje de Segunda Generación}{figure.1.3}{}}
\@writefile{lof}{\contentsline {figure}{\numberline {1.4}{\ignorespaces Robot con control sensorizado de Tercera Generaci\IeC {\'o}n}}{7}{figure.1.4}}
\newlabel{RobotTercera}{{1.4}{7}{Robot con control sensorizado de Tercera Generación}{figure.1.4}{}}
\@writefile{lof}{\contentsline {figure}{\numberline {1.5}{\ignorespaces Kilobot. Ejemplo de Robot Inteligente}}{8}{figure.1.5}}
\newlabel{RobotInteligente}{{1.5}{8}{Kilobot. Ejemplo de Robot Inteligente}{figure.1.5}{}}
\@writefile{lof}{\contentsline {figure}{\numberline {1.6}{\ignorespaces Clasificaci\IeC {\'o}n Generacional de los Robots}}{8}{figure.1.6}}
\newlabel{ClasGene}{{1.6}{8}{Clasificación Generacional de los Robots}{figure.1.6}{}}
\@writefile{lof}{\contentsline {figure}{\numberline {1.7}{\ignorespaces Robot Industrial. Ejemplo de Robot Poliarticulado}}{8}{figure.1.7}}
\newlabel{Poliarticulado}{{1.7}{8}{Robot Industrial. Ejemplo de Robot Poliarticulado}{figure.1.7}{}}
\@writefile{lof}{\contentsline {figure}{\numberline {1.8}{\ignorespaces Ejemplo de Robot Movil}}{9}{figure.1.8}}
\newlabel{RobotMovil}{{1.8}{9}{Ejemplo de Robot Movil}{figure.1.8}{}}
\@writefile{lof}{\contentsline {figure}{\numberline {1.9}{\ignorespaces Ejemplo de Robot Androide}}{9}{figure.1.9}}
\newlabel{Androide}{{1.9}{9}{Ejemplo de Robot Androide}{figure.1.9}{}}
\@writefile{lof}{\contentsline {figure}{\numberline {1.10}{\ignorespaces Ejemplo de Robot Zoom\IeC {\'o}rfico}}{10}{figure.1.10}}
\newlabel{Zoomorfico}{{1.10}{10}{Ejemplo de Robot Zoomórfico}{figure.1.10}{}}
\@writefile{lof}{\contentsline {figure}{\numberline {1.11}{\ignorespaces Ejemplo de Robot H\IeC {\'\i }brido}}{10}{figure.1.11}}
\newlabel{Hibrido}{{1.11}{10}{Ejemplo de Robot Híbrido}{figure.1.11}{}}
\@writefile{toc}{\contentsline {section}{\numberline {1.4}Estructura del documento}{10}{section.1.4}}
\@writefile{lof}{\contentsline {figure}{\numberline {1.12}{\ignorespaces Clasificaci\IeC {\'o}n Arquitectural de los Robots}}{10}{figure.1.12}}
\newlabel{ClasArqui}{{1.12}{10}{Clasificación Arquitectural de los Robots}{figure.1.12}{}}
\citation{Kilobotics}
\citation{AVRDUDE}
\@writefile{toc}{\contentsline {chapter}{\numberline {2}Objetivos}{13}{chapter.2}}
\@writefile{lof}{\addvspace {10\p@ }}
\@writefile{lot}{\addvspace {10\p@ }}
\newlabel{chap:objetivos}{{2}{13}{Objetivos}{chapter.2}{}}
\@writefile{toc}{\contentsline {section}{\numberline {2.1}Objetivo general}{13}{section.2.1}}
\@writefile{toc}{\contentsline {section}{\numberline {2.2}Objetivos espec\IeC {\'\i }ficos}{13}{section.2.2}}
\@writefile{toc}{\contentsline {subsection}{\numberline {2.2.1}Objetivo 1: Disponer de un entorno de desarrollo}{13}{subsection.2.2.1}}
\@writefile{toc}{\contentsline {subsubsection}{Entorno Software}{13}{subsection.2.2.1}}
\citation{AVRLibc}
\citation{Kilolib}
\citation{KilobotsMan}
\acronymused{AVRDUDE}
\acronymused{PROM}
\acronymused{EEPROM}
\acronymused{GCC}
\@writefile{toc}{\contentsline {subsubsection}{Entorno Hardware}{14}{subsection.2.2.1}}
\acronymused{OHC}
\acronymused{OHC}
\@writefile{toc}{\contentsline {subsubsection}{Toma de decisiones para el entrenamiento}{15}{subsection.2.2.1}}
\@writefile{toc}{\contentsline {subsection}{\numberline {2.2.2}Objetivo 2: Constituci\IeC {\'o}n de la configuraci\IeC {\'o}n y la estructura de la formaci\IeC {\'o}n}{15}{subsection.2.2.2}}
\citation{C}
\@writefile{toc}{\contentsline {subsection}{\numberline {2.2.3}Objetivo 3: Actividad coordinada dentro de la formaci\IeC {\'o}n}{16}{subsection.2.2.3}}
\@writefile{toc}{\contentsline {section}{\numberline {2.3}Herramientas y medios de trabajo}{16}{section.2.3}}
\@writefile{toc}{\contentsline {subsection}{\numberline {2.3.1}Medios Software}{16}{subsection.2.3.1}}
\@writefile{toc}{\contentsline {subsubsection}{Lenguajes de Programaci\IeC {\'o}n y Herramientas de Implementaci\IeC {\'o}n}{16}{subsection.2.3.1}}
\acronymused{GCC}
\acronymused{GNU}
\acronymused{UNCOL}
\citation{Latex}
\citation{draw}
\@writefile{toc}{\contentsline {subsubsection}{Gesti\IeC {\'o}n de la documentaci\IeC {\'o}n}{17}{subsection.2.3.1}}
\acronymused{GPL}
\acronymused{GNU}
\acronymused{SVG}
\acronymused{HTML}
\acronymused{UML}
\acronymused{UML}
\acronymused{ER}
\@writefile{toc}{\contentsline {subsection}{\numberline {2.3.2}Medios Hardware}{17}{subsection.2.3.2}}
\citation{ImitationLife}
\@writefile{toc}{\contentsline {chapter}{\numberline {3}Antecedentes}{19}{chapter.3}}
\@writefile{lof}{\addvspace {10\p@ }}
\@writefile{lot}{\addvspace {10\p@ }}
\newlabel{chap:antecedentes}{{3}{19}{Antecedentes}{chapter.3}{}}
\@writefile{toc}{\contentsline {section}{\numberline {3.1}Computaci\IeC {\'o}n Evolutiva}{19}{section.3.1}}
\acronymused{EC}
\@writefile{lof}{\contentsline {figure}{\numberline {3.1}{\ignorespaces Resumen Antecedentes}}{19}{figure.3.1}}
\newlabel{fig:Antec}{{3.1}{19}{Resumen Antecedentes}{figure.3.1}{}}
\@writefile{toc}{\contentsline {subsection}{\numberline {3.1.1}Fundamentos de Computaci\IeC {\'o}n Evolutiva}{20}{subsection.3.1.1}}
\citation{OrigenEspecies}
\@writefile{lof}{\contentsline {figure}{\numberline {3.2}{\ignorespaces Met\IeC {\'a}fora del Proceso Evolutivo}}{21}{figure.3.2}}
\newlabel{fig:ProcEv}{{3.2}{21}{Metáfora del Proceso Evolutivo}{figure.3.2}{}}
\@writefile{toc}{\contentsline {subsection}{\numberline {3.1.2}La evoluci\IeC {\'o}n de Darwin}{21}{subsection.3.1.2}}
\@writefile{lof}{\contentsline {figure}{\numberline {3.3}{\ignorespaces Met\IeC {\'a}fora del proceso de selecci\IeC {\'o}n natural}}{22}{figure.3.3}}
\newlabel{fig:EvDarw}{{3.3}{22}{Metáfora del proceso de selección natural}{figure.3.3}{}}
\citation{Gen}
\@writefile{lof}{\contentsline {figure}{\numberline {3.4}{\ignorespaces Dualidad genotipo-fenotipo de los individuos}}{23}{figure.3.4}}
\newlabel{fig:GenFen}{{3.4}{23}{Dualidad genotipo-fenotipo de los individuos}{figure.3.4}{}}
\@writefile{lof}{\contentsline {figure}{\numberline {3.5}{\ignorespaces Proceso reproductivo desde el punto de vista de la selecci\IeC {\'o}n natural}}{23}{figure.3.5}}
\newlabel{fig:Reprod}{{3.5}{23}{Proceso reproductivo desde el punto de vista de la selección natural}{figure.3.5}{}}
\@writefile{toc}{\contentsline {subsection}{\numberline {3.1.3}Gen\IeC {\'e}tica Molecular}{23}{subsection.3.1.3}}
\citation{Congen}
\@writefile{lof}{\contentsline {figure}{\numberline {3.6}{\ignorespaces Divisi\IeC {\'o}n celular mediante meiosis}}{25}{figure.3.6}}
\newlabel{fig:meiosis}{{3.6}{25}{División celular mediante meiosis}{figure.3.6}{}}
\@writefile{toc}{\contentsline {subsubsection}{El ADN}{25}{figure.3.6}}
\citation{EC}
\@writefile{lof}{\contentsline {figure}{\numberline {3.7}{\ignorespaces Estructura del ADN}}{26}{figure.3.7}}
\newlabel{fig:ADN}{{3.7}{26}{Estructura del ADN}{figure.3.7}{}}
\citation{EC}
\@writefile{toc}{\contentsline {subsection}{\numberline {3.1.4}Historia de la computaci\IeC {\'o}n Evolutiva}{27}{subsection.3.1.4}}
\acronymused{EC}
\acronymused{IEEE}
\acronymused{EC}
\acronymused{IEEE}
\@writefile{toc}{\contentsline {subsection}{\numberline {3.1.5}Aplicaciones de la Computaci\IeC {\'o}n Evolutiva}{28}{subsection.3.1.5}}
\@writefile{lof}{\contentsline {figure}{\numberline {3.8}{\ignorespaces Problema de Optimizaci\IeC {\'o}n}}{29}{figure.3.8}}
\newlabel{fig:optim}{{3.8}{29}{Problema de Optimización}{figure.3.8}{}}
\@writefile{lof}{\contentsline {figure}{\numberline {3.9}{\ignorespaces Problema de modelado o sistema de identificaci\IeC {\'o}n}}{30}{figure.3.9}}
\newlabel{fig:model}{{3.9}{30}{Problema de modelado o sistema de identificación}{figure.3.9}{}}
\@writefile{lof}{\contentsline {figure}{\numberline {3.10}{\ignorespaces Problema de Simulaci\IeC {\'o}n}}{30}{figure.3.10}}
\newlabel{fig:sim}{{3.10}{30}{Problema de Simulación}{figure.3.10}{}}
\@writefile{toc}{\contentsline {section}{\numberline {3.2}Algoritmos Bioinspirados}{31}{section.3.2}}
\@writefile{toc}{\contentsline {subsection}{\numberline {3.2.1}Concepto y definici\IeC {\'o}n}{31}{subsection.3.2.1}}
\@writefile{lof}{\contentsline {figure}{\numberline {3.11}{\ignorespaces Esquema de definici\IeC {\'o}n de un algoritmo Bioinspirado}}{33}{figure.3.11}}
\newlabel{fig:AB}{{3.11}{33}{Esquema de definición de un algoritmo Bioinspirado}{figure.3.11}{}}
\@writefile{toc}{\contentsline {subsection}{\numberline {3.2.2}Elementos de un Algoritmo Bioinspirado}{33}{subsection.3.2.2}}
\@writefile{toc}{\contentsline {subsubsection}{Inicializaci\IeC {\'o}n}{33}{figure.3.11}}
\@writefile{toc}{\contentsline {subsubsection}{Poblaci\IeC {\'o}n}{33}{figure.3.11}}
\@writefile{toc}{\contentsline {subsubsection}{Representaci\IeC {\'o}n}{34}{figure.3.11}}
\@writefile{toc}{\contentsline {subsubsection}{Funci\IeC {\'o}n de Evaluaci\IeC {\'o}n o Fitness}{35}{figure.3.11}}
\@writefile{toc}{\contentsline {subsubsection}{Mecanismos de selecci\IeC {\'o}n o supervivencia del m\IeC {\'a}s fuerte}{35}{figure.3.11}}
\@writefile{toc}{\contentsline {subsubsection}{Operadores de Variaci\IeC {\'o}n}{35}{figure.3.11}}
\@writefile{toc}{\contentsline {subsubsection}{Reemplazo o eliminaci\IeC {\'o}n del m\IeC {\'a}s d\IeC {\'e}bil}{36}{figure.3.11}}
\@writefile{toc}{\contentsline {subsubsection}{Condici\IeC {\'o}n de Terminaci\IeC {\'o}n}{36}{figure.3.11}}
\citation{Brassard}
\@writefile{loa}{\contentsline {algorithm}{\numberline {1}{\ignorespaces Esquema general de un algoritmo bioinspirado}}{37}{algorithm.1}}
\newlabel{code:bioinspirado}{{1}{37}{Condición de Terminación}{algorithm.1}{}}
\@writefile{toc}{\contentsline {subsection}{\numberline {3.2.3}Ejemplos Pr\IeC {\'a}cticos}{37}{subsection.3.2.3}}
\@writefile{toc}{\contentsline {subsubsection}{El problema de las n-reinas}{37}{subsection.3.2.3}}
\citation{Reinas}
\citation{Brassard}
\@writefile{lof}{\contentsline {figure}{\numberline {3.12}{\ignorespaces Una solucion al problema de las 8 reinas}}{39}{figure.3.12}}
\newlabel{fig:8reinas}{{3.12}{39}{Una solucion al problema de las 8 reinas}{figure.3.12}{}}
\@writefile{toc}{\contentsline {subsubsection}{El problema de la mochila}{39}{figure.3.12}}
\@writefile{lof}{\contentsline {figure}{\numberline {3.13}{\ignorespaces Representaci\IeC {\'o}n gr\IeC {\'a}fica del problema de la mochila}}{40}{figure.3.13}}
\newlabel{fig:mochila}{{3.13}{40}{Representación gráfica del problema de la mochila}{figure.3.13}{}}
\citation{Brassard}
\@writefile{lof}{\contentsline {figure}{\numberline {3.14}{\ignorespaces Representaci\IeC {\'o}n gr\IeC {\'a}fica del problema del viajante de comercio}}{42}{figure.3.14}}
\newlabel{fig:viajante}{{3.14}{42}{Representación gráfica del problema del viajante de comercio}{figure.3.14}{}}
\@writefile{toc}{\contentsline {subsubsection}{El problema del viajante de comercio}{42}{equation.3.2.2}}
\@writefile{toc}{\contentsline {subsection}{\numberline {3.2.4}Rendimiento y Eficiencia}{43}{subsection.3.2.4}}
\@writefile{toc}{\contentsline {subsubsection}{Optimizaci\IeC {\'o}n global en algoritmos bioinspirados}{44}{subsection.3.2.4}}
\citation{Swarm}
\@writefile{toc}{\contentsline {section}{\numberline {3.3}Swarm Intelligence}{45}{section.3.3}}
\citation{AntCo}
\acronymused{ACO}
\acronymused{PSO}
\@writefile{toc}{\contentsline {subsection}{\numberline {3.3.1}Ant Colony Optimization (ACO)}{46}{subsection.3.3.1}}
\@writefile{toc}{\contentsline {subsubsection}{El experimento del puente}{47}{subsection.3.3.1}}
\@writefile{lof}{\contentsline {figure}{\numberline {3.15}{\ignorespaces El experimento del puente}}{48}{figure.3.15}}
\newlabel{fig:puente}{{3.15}{48}{El experimento del puente}{figure.3.15}{}}
\@writefile{toc}{\contentsline {subsubsection}{De la hormiga natural a la hormiga artificial}{48}{figure.3.15}}
\acronymused{ACO}
\acronymused{S-ACO}
\@writefile{toc}{\contentsline {subsubsection}{Simplest Ant Colony Optimization S-ACO}{49}{equation.3.3.9}}
\acronymused{ACO}
\@writefile{toc}{\contentsline {subsection}{\numberline {3.3.2}La metaheur\IeC {\'\i }stica de ACO}{50}{subsection.3.3.2}}
\acronymused{ACO}
\acronymused{TSP}
\newlabel{ec:proboptc}{{3.11}{51}{La metaheurística de ACO}{equation.3.3.11}{}}
\acronymused{ACO}
\acronymused{ACO}
\citation{Hormigas}
\@writefile{toc}{\contentsline {subsubsection}{El algoritmo}{53}{Item.51}}
\acronymused{ACO}
\citation{AMRobots}
\@writefile{loa}{\contentsline {algorithm}{\numberline {2}{\ignorespaces Esquema de la metaheur\IeC {\'\i }stica ACO}}{54}{algorithm.2}}
\newlabel{code:metaACO}{{2}{54}{El algoritmo}{algorithm.2}{}}
\acronymused{ACO}
\@writefile{toc}{\contentsline {section}{\numberline {3.4}Rob\IeC {\'o}tica M\IeC {\'o}vil}{54}{section.3.4}}
\acronymused{DAI}
\acronymused{DAI}
\citation{AMRLewis}
\@writefile{toc}{\contentsline {subsection}{\numberline {3.4.1}Sistemas multi-robot cooperativos}{56}{subsection.3.4.1}}
\citation{Bekey}
\@writefile{toc}{\contentsline {subsection}{\numberline {3.4.2}Planificaci\IeC {\'o}n de Movimientos }{57}{subsection.3.4.2}}
\acronymused{RHC}
\@writefile{lof}{\contentsline {figure}{\numberline {3.16}{\ignorespaces Enfoques de planificaci\IeC {\'o}n y control del movimiento}}{58}{figure.3.16}}
\newlabel{fig:motionplanning}{{3.16}{58}{Enfoques de planificación y control del movimiento}{figure.3.16}{}}
\citation{XP}
\@writefile{toc}{\contentsline {chapter}{\numberline {4}M\IeC {\'e}todo}{59}{chapter.4}}
\@writefile{lof}{\addvspace {10\p@ }}
\@writefile{lot}{\addvspace {10\p@ }}
\newlabel{chap:metodo}{{4}{59}{Método}{chapter.4}{}}
\@writefile{toc}{\contentsline {section}{\numberline {4.1}Elecci\IeC {\'o}n de la metodolog\IeC {\'\i }a de desarrollo}{59}{section.4.1}}
\@writefile{toc}{\contentsline {section}{\numberline {4.2}Extreme Programming (XP)}{59}{section.4.2}}
\@writefile{toc}{\contentsline {subsection}{\numberline {4.2.1}El principal problema}{60}{subsection.4.2.1}}
\@writefile{toc}{\contentsline {subsection}{\numberline {4.2.2}Las cuatro variables}{62}{subsection.4.2.2}}
\@writefile{toc}{\contentsline {subsection}{\numberline {4.2.3}Los cuatro valores}{62}{subsection.4.2.3}}
\@writefile{toc}{\contentsline {subsection}{\numberline {4.2.4}Las cuatro tareas}{63}{subsection.4.2.4}}
\@writefile{lof}{\contentsline {figure}{\numberline {4.1}{\ignorespaces ExtremeProgramming}}{64}{figure.4.1}}
\newlabel{fig:Extreme}{{4.1}{64}{ExtremeProgramming}{figure.4.1}{}}
\@writefile{toc}{\contentsline {section}{\numberline {4.3}Aplicaci\IeC {\'o}n de la metodolog\IeC {\'\i }a}{65}{section.4.3}}
\@writefile{lof}{\contentsline {figure}{\numberline {4.2}{\ignorespaces Planificaci\IeC {\'o}n del mes de Septiembre.}}{66}{figure.4.2}}
\newlabel{fig:sep}{{4.2}{66}{Planificación del mes de Septiembre}{figure.4.2}{}}
\@writefile{lof}{\contentsline {figure}{\numberline {4.3}{\ignorespaces Planificaci\IeC {\'o}n del mes de Octubre}}{67}{figure.4.3}}
\newlabel{fig:oct}{{4.3}{67}{Planificación del mes de Octubre}{figure.4.3}{}}
\@writefile{lof}{\contentsline {figure}{\numberline {4.4}{\ignorespaces Planificaci\IeC {\'o}n del mes de Noviembre}}{67}{figure.4.4}}
\newlabel{fig:nov}{{4.4}{67}{Planificación del mes de Noviembre}{figure.4.4}{}}
\@writefile{lof}{\contentsline {figure}{\numberline {4.5}{\ignorespaces Planificaci\IeC {\'o}n del mes de Enero}}{68}{figure.4.5}}
\newlabel{fig:ene}{{4.5}{68}{Planificación del mes de Enero}{figure.4.5}{}}
\@writefile{lof}{\contentsline {figure}{\numberline {4.6}{\ignorespaces Planificaci\IeC {\'o}n del mes de Febrero}}{69}{figure.4.6}}
\newlabel{fig:feb}{{4.6}{69}{Planificación del mes de Febrero}{figure.4.6}{}}
\@writefile{lof}{\contentsline {figure}{\numberline {4.7}{\ignorespaces Planificaci\IeC {\'o}n del mes de Marzo}}{69}{figure.4.7}}
\newlabel{fig:mar}{{4.7}{69}{Planificación del mes de Marzo}{figure.4.7}{}}
\@writefile{lof}{\contentsline {figure}{\numberline {4.8}{\ignorespaces Planificaci\IeC {\'o}n del mes de Abril}}{70}{figure.4.8}}
\newlabel{fig:abr}{{4.8}{70}{Planificación del mes de Abril}{figure.4.8}{}}
\@writefile{lof}{\contentsline {figure}{\numberline {4.9}{\ignorespaces Planificaci\IeC {\'o}n del mes de Mayo}}{70}{figure.4.9}}
\newlabel{fig:may}{{4.9}{70}{Planificación del mes de Mayo}{figure.4.9}{}}
\@writefile{lof}{\contentsline {figure}{\numberline {4.10}{\ignorespaces Planificaci\IeC {\'o}n del mes de Junio}}{71}{figure.4.10}}
\newlabel{fig:jun}{{4.10}{71}{Planificación del mes de Junio}{figure.4.10}{}}
\@writefile{toc}{\contentsline {chapter}{\numberline {5}La Propuesta}{73}{chapter.5}}
\@writefile{lof}{\addvspace {10\p@ }}
\@writefile{lot}{\addvspace {10\p@ }}
\newlabel{chap:propuesta}{{5}{73}{La Propuesta}{chapter.5}{}}
\@writefile{toc}{\contentsline {section}{\numberline {5.1}Enfoques}{73}{section.5.1}}
\@writefile{toc}{\contentsline {subsection}{\numberline {5.1.1}Enfoque de conocimiento global}{73}{subsection.5.1.1}}
\@writefile{lof}{\contentsline {figure}{\numberline {5.1}{\ignorespaces Enfoque de Conocimiento Global}}{74}{figure.5.1}}
\newlabel{fig:Global}{{5.1}{74}{Enfoque de Conocimiento Global}{figure.5.1}{}}
\@writefile{toc}{\contentsline {subsection}{\numberline {5.1.2}Local Sensing}{74}{subsection.5.1.2}}
\@writefile{lof}{\contentsline {figure}{\numberline {5.2}{\ignorespaces Enfoque de Local Sensing o Detecci\IeC {\'o}n Local}}{75}{figure.5.2}}
\newlabel{fig:Local}{{5.2}{75}{Enfoque de Local Sensing o Detección Local}{figure.5.2}{}}
\@writefile{toc}{\contentsline {section}{\numberline {5.2}Compendio de aportaciones}{75}{section.5.2}}
\@writefile{toc}{\contentsline {subsection}{\numberline {5.2.1}Algoritmos de Consenso en Sistemas Multiagentes}{75}{subsection.5.2.1}}
\citation{Paxos}
\citation{GeneralAlgorithm}
\@writefile{toc}{\contentsline {subsubsection}{Algoritmo de Paxos}{76}{subsection.5.2.1}}
\@writefile{toc}{\contentsline {subsubsection}{Algoritmo gen\IeC {\'e}rico de Fredslund y Matari\IeC {\'c}}{76}{subsection.5.2.1}}
\citation{Behaviour-Based}
\@writefile{lof}{\contentsline {figure}{\numberline {5.3}{\ignorespaces Formaciones centradas y no centradas}}{77}{figure.5.3}}
\newlabel{fig:formaciones}{{5.3}{77}{Formaciones centradas y no centradas}{figure.5.3}{}}
\@writefile{toc}{\contentsline {subsubsection}{Control de formaciones basado en comportamientos}{77}{figure.5.3}}
\@writefile{lof}{\contentsline {figure}{\numberline {5.4}{\ignorespaces Formaciones en l\IeC {\'\i }nea y columna}}{78}{figure.5.4}}
\newlabel{fig:formacionescomportamiento}{{5.4}{78}{Formaciones en línea y columna}{figure.5.4}{}}
\@writefile{lof}{\contentsline {figure}{\numberline {5.5}{\ignorespaces Formaciones en diamante y cu\IeC {\~n}a}}{78}{figure.5.5}}
\newlabel{fig:diamanteycu\IeC {\~n}a}{{5.5}{78}{Formaciones en diamante y cuña}{figure.5.5}{}}
\citation{AlgoritmosHormigas}
\citation{AlgoritmosHormigas}
\@writefile{lof}{\contentsline {figure}{\numberline {5.6}{\ignorespaces Algoritmos en enjambres de hormigas. Imagen tomada de \cite  {AlgoritmosHormigas}}}{79}{figure.5.6}}
\newlabel{fig:AlgoritmosHormigas}{{5.6}{79}{Algoritmos en enjambres de hormigas. Imagen tomada de \cite {AlgoritmosHormigas}}{figure.5.6}{}}
\@writefile{toc}{\contentsline {subsubsection}{Algoritmos en enjambres de hormigas}{79}{figure.5.5}}
\citation{HaciaFormacionesDinamicas}
\@writefile{toc}{\contentsline {subsubsection}{Otros trabajos}{80}{figure.5.6}}
\citation{Finite-time_multiagent-systems}
\citation{finite-time_switchingtopologies}
\citation{Finite-time_double-integrator}
\citation{Lider}
\@writefile{toc}{\contentsline {subsection}{\numberline {5.2.2}Algoritmos de Seleccion del L\IeC {\'\i }der}{81}{subsection.5.2.2}}
\citation{ControllingFormations}
\citation{ControllingFormations}
\citation{ControllingFormations}
\@writefile{toc}{\contentsline {subsection}{\numberline {5.2.3}Algoritmos de Establecimiento y Control de formaciones}{82}{subsection.5.2.3}}
\@writefile{toc}{\contentsline {subsubsection}{Leyes de Retroalimentaci\IeC {\'o}n}{82}{subsection.5.2.3}}
\@writefile{lof}{\contentsline {figure}{\numberline {5.7}{\ignorespaces l-$\psi $ control. Imagen tomada de \cite  {ControllingFormations}}}{83}{figure.5.7}}
\newlabel{fig:l-psi}{{5.7}{83}{l-$\psi $ control. Imagen tomada de \cite {ControllingFormations}}{figure.5.7}{}}
\@writefile{lof}{\contentsline {figure}{\numberline {5.8}{\ignorespaces l-l control. Imagen tomada de \cite  {ControllingFormations}}}{83}{figure.5.8}}
\newlabel{fig:l-l}{{5.8}{83}{l-l control. Imagen tomada de \cite {ControllingFormations}}{figure.5.8}{}}
\citation{ModelingandControl}
\@writefile{toc}{\contentsline {subsubsection}{Otros trabajos}{84}{Item.85}}
\citation{ArtKilobots}
\citation{ComportamientosCoordinados}
\citation{DynamicTeam}
\citation{NegotiatedFormations}
\citation{FormationControl}
\@writefile{toc}{\contentsline {section}{\numberline {5.3}Definici\IeC {\'o}n del problema}{86}{section.5.3}}
\@writefile{lof}{\contentsline {figure}{\numberline {5.9}{\ignorespaces Diagrama de estados del aut\IeC {\'o}mata finito que resuelve el problema}}{87}{figure.5.9}}
\newlabel{automata}{{5.9}{87}{Diagrama de estados del autómata finito que resuelve el problema}{figure.5.9}{}}
\@writefile{toc}{\contentsline {subsection}{\numberline {5.3.1}El algoritmo}{87}{subsection.5.3.1}}
\@writefile{loa}{\contentsline {algorithm}{\numberline {3}{\ignorespaces Protocolo de descubrimiento}}{88}{algorithm.3}}
\newlabel{code:descubrimiento}{{3}{88}{El algoritmo}{algorithm.3}{}}
\citation{aprendizaje}
\citation{refuerzo}
\newlabel{tab:formatopropuestas}{{2\emph  {e}}{90}{El algoritmo}{equation.5.3.10}{}}
\@writefile{lot}{\contentsline {table}{\numberline {5.1}{\ignorespaces Formato de las Propuestas}}{90}{table.5.1}}
\@writefile{loa}{\contentsline {algorithm}{\numberline {4}{\ignorespaces Selecci\IeC {\'o}n de la Configuraci\IeC {\'o}n}}{90}{algorithm.4}}
\newlabel{code:seleccioncfg}{{4}{90}{El algoritmo}{algorithm.4}{}}
\@writefile{loa}{\contentsline {algorithm}{\numberline {5}{\ignorespaces Consenso}}{91}{algorithm.5}}
\newlabel{code:consenso}{{5}{91}{El algoritmo}{algorithm.5}{}}
\@writefile{loa}{\contentsline {algorithm}{\numberline {6}{\ignorespaces Funci\IeC {\'o}n que ejecuta el rol de Lector}}{91}{algorithm.6}}
\newlabel{code:lector}{{6}{91}{El algoritmo}{algorithm.6}{}}
\@writefile{loa}{\contentsline {algorithm}{\numberline {7}{\ignorespaces Funci\IeC {\'o}n que ejecuta el rol de Escritor}}{91}{algorithm.7}}
\newlabel{code:escritor}{{7}{91}{El algoritmo}{algorithm.7}{}}
\@writefile{loa}{\contentsline {algorithm}{\numberline {8}{\ignorespaces Funci\IeC {\'o}n que realiza la selecci\IeC {\'o}n del l\IeC {\'\i }der}}{92}{algorithm.8}}
\newlabel{code:lider}{{8}{92}{El algoritmo}{algorithm.8}{}}
\@writefile{toc}{\contentsline {subsection}{\numberline {5.3.2}Implementaci\IeC {\'o}n de la Propuesta}{92}{subsection.5.3.2}}
\@writefile{lof}{\contentsline {figure}{\numberline {5.10}{\ignorespaces Diagrama de estados extendido del aut\IeC {\'o}mata finito que resuelve el problema}}{93}{figure.5.10}}
\newlabel{nuevoautomata}{{5.10}{93}{Diagrama de estados extendido del autómata finito que resuelve el problema}{figure.5.10}{}}
\@writefile{lof}{\contentsline {figure}{\numberline {5.11}{\ignorespaces Diagrama de flujo del Algoritmo Bioinspirado Propuesto}}{94}{figure.5.11}}
\newlabel{algoritmo}{{5.11}{94}{Diagrama de flujo del Algoritmo Bioinspirado Propuesto}{figure.5.11}{}}
\citation{Cookbook}
\citation{Tamassia}
\citation{Python}
\citation{C}
\@writefile{toc}{\contentsline {subsubsection}{Implementaci\IeC {\'o}n del Simulador}{95}{Item.96}}
\@writefile{toc}{\contentsline {paragraph}{Estructuras de datos}{95}{Item.96}}
\@writefile{lof}{\contentsline {figure}{\numberline {5.12}{\ignorespaces Estructura de datos Heap}}{96}{figure.5.12}}
\newlabel{Heap}{{5.12}{96}{Estructura de datos Heap}{figure.5.12}{}}
\@writefile{toc}{\contentsline {paragraph}{Inicio. Representaci\IeC {\'o}n.}{96}{figure.5.13}}
\@writefile{lof}{\contentsline {figure}{\numberline {5.13}{\ignorespaces Heaps implementados en la soluci\IeC {\'o}n}}{97}{figure.5.13}}
\newlabel{Heaps}{{5.13}{97}{Heaps implementados en la solución}{figure.5.13}{}}
\@writefile{toc}{\contentsline {paragraph}{Descubrimiento}{97}{figure.5.14}}
\@writefile{toc}{\contentsline {paragraph}{Selecci\IeC {\'o}n de la Configuraci\IeC {\'o}n}{97}{equation.5.3.12}}
\@writefile{lof}{\contentsline {figure}{\numberline {5.14}{\ignorespaces Inicializacion de la posicion de los agentes en el simulador}}{98}{figure.5.14}}
\newlabel{Inicio}{{5.14}{98}{Inicializacion de la posicion de los agentes en el simulador}{figure.5.14}{}}
\@writefile{toc}{\contentsline {paragraph}{Consenso}{98}{figure.5.15}}
\@writefile{lof}{\contentsline {figure}{\numberline {5.15}{\ignorespaces Movimiento tras el descubrimiento}}{99}{figure.5.15}}
\newlabel{Movimiento}{{5.15}{99}{Movimiento tras el descubrimiento}{figure.5.15}{}}
\@writefile{toc}{\contentsline {paragraph}{Selecci\IeC {\'o}n del L\IeC {\'\i }der}{99}{figure.5.15}}
\@writefile{lof}{\contentsline {figure}{\numberline {5.16}{\ignorespaces Resultado del consenso y selecci\IeC {\'o}n del l\IeC {\'\i }der}}{99}{figure.5.16}}
\newlabel{Consenso}{{5.16}{99}{Resultado del consenso y selección del líder}{figure.5.16}{}}
\@writefile{toc}{\contentsline {chapter}{\numberline {6}Resultados}{101}{chapter.6}}
\@writefile{lof}{\addvspace {10\p@ }}
\@writefile{lot}{\addvspace {10\p@ }}
\newlabel{chap:resultados}{{6}{101}{Resultados}{chapter.6}{}}
\@writefile{toc}{\contentsline {section}{\numberline {6.1}Implementaci\IeC {\'o}n de la propuesta en Kilobots}{101}{section.6.1}}
\@writefile{toc}{\contentsline {subsection}{\numberline {6.1.1}L\IeC {\'\i }nea base}{101}{subsection.6.1.1}}
\@writefile{lof}{\contentsline {figure}{\numberline {6.1}{\ignorespaces Representaci\IeC {\'o}n del aut\IeC {\'o}mata finito que ejecutan los Kilobots}}{102}{figure.6.1}}
\newlabel{fig:automatakilo}{{6.1}{102}{Representación del autómata finito que ejecutan los Kilobots}{figure.6.1}{}}
\newlabel{code:estados}{{6.1}{102}{Definicíon de los estados del autómata}{lstlisting.6.1}{}}
\@writefile{lol}{\contentsline {lstlisting}{\numberline {6.1}Definic\IeC {\'\i }on de los estados del aut\IeC {\'o}mata}{102}{lstlisting.6.1}}
\newlabel{code:automata}{{6.2}{102}{Definición de los estados del autómata}{lstlisting.6.2}{}}
\@writefile{lol}{\contentsline {lstlisting}{\numberline {6.2}Definici\IeC {\'o}n de los estados del aut\IeC {\'o}mata}{102}{lstlisting.6.2}}
\@writefile{lof}{\contentsline {figure}{\numberline {6.2}{\ignorespaces Estructura de datos Heap}}{105}{figure.6.2}}
\newlabel{fig:HeapsGraf}{{6.2}{105}{Estructura de datos Heap}{figure.6.2}{}}
\newlabel{code:cambioestado}{{6.3}{105}{Definicíon de los estados del autómata}{lstlisting.6.3}{}}
\@writefile{lol}{\contentsline {lstlisting}{\numberline {6.3}Definic\IeC {\'\i }on de los estados del aut\IeC {\'o}mata}{105}{lstlisting.6.3}}
\@writefile{toc}{\contentsline {subsection}{\numberline {6.1.2}Inicializacion}{105}{subsection.6.1.2}}
\newlabel{code:Heap}{{6.4}{105}{Implementación de una biblioteca para Heaps}{lstlisting.6.4}{}}
\@writefile{lol}{\contentsline {lstlisting}{\numberline {6.4}Implementaci\IeC {\'o}n de una biblioteca para Heaps}{105}{lstlisting.6.4}}
\@writefile{toc}{\contentsline {subsection}{\numberline {6.1.3}Descubrimiento}{110}{subsection.6.1.3}}
\@writefile{lof}{\contentsline {figure}{\numberline {6.3}{\ignorespaces Estado de descubrimiento que ejecuta un Kilobot}}{111}{figure.6.3}}
\newlabel{fig:discoverkilo}{{6.3}{111}{Estado de descubrimiento que ejecuta un Kilobot}{figure.6.3}{}}
\newlabel{code:descubrimiento}{{6.5}{111}{Función que implementa el estado Descubrimiento}{lstlisting.6.5}{}}
\@writefile{lol}{\contentsline {lstlisting}{\numberline {6.5}Funci\IeC {\'o}n que implementa el estado Descubrimiento}{111}{lstlisting.6.5}}
\@writefile{toc}{\contentsline {subsection}{\numberline {6.1.4}Selecci\IeC {\'o}n de la Configuraci\IeC {\'o}n}{113}{subsection.6.1.4}}
\newlabel{code:sc}{{6.6}{113}{Función que implementa la Selección de la Configuración}{lstlisting.6.6}{}}
\@writefile{lol}{\contentsline {lstlisting}{\numberline {6.6}Funci\IeC {\'o}n que implementa la Selecci\IeC {\'o}n de la Configuraci\IeC {\'o}n}{113}{lstlisting.6.6}}
\@writefile{lof}{\contentsline {figure}{\numberline {6.4}{\ignorespaces Protocolo de Selecci\IeC {\'o}n de la Configuraci\IeC {\'o}n}}{116}{figure.6.4}}
\newlabel{fig:configuracion}{{6.4}{116}{Protocolo de Selección de la Configuración}{figure.6.4}{}}
\@writefile{toc}{\contentsline {subsection}{\numberline {6.1.5}Consenso}{116}{subsection.6.1.5}}
\newlabel{code:consenso}{{6.7}{116}{Algoritmo de Consenso}{lstlisting.6.7}{}}
\@writefile{lol}{\contentsline {lstlisting}{\numberline {6.7}Algoritmo de Consenso}{116}{lstlisting.6.7}}
\@writefile{lof}{\contentsline {figure}{\numberline {6.5}{\ignorespaces Representaci\IeC {\'o}n del estado de consenso en los Kilobots}}{117}{figure.6.5}}
\newlabel{fig:consensokilo}{{6.5}{117}{Representación del estado de consenso en los Kilobots}{figure.6.5}{}}
\@writefile{toc}{\contentsline {subsection}{\numberline {6.1.6}Lucernario}{119}{subsection.6.1.6}}
\newlabel{code:lucernario}{{6.8}{120}{Etapa de Lucernario}{lstlisting.6.8}{}}
\@writefile{lol}{\contentsline {lstlisting}{\numberline {6.8}Etapa de Lucernario}{120}{lstlisting.6.8}}
\@writefile{toc}{\contentsline {subsection}{\numberline {6.1.7}Selecci\IeC {\'o}n del l\IeC {\'\i }der}{122}{subsection.6.1.7}}
\newlabel{code:lider}{{6.9}{122}{Selección del Líder}{lstlisting.6.9}{}}
\@writefile{lol}{\contentsline {lstlisting}{\numberline {6.9}Selecci\IeC {\'o}n del L\IeC {\'\i }der}{122}{lstlisting.6.9}}
\@writefile{toc}{\contentsline {chapter}{\numberline {7}Conclusiones y Trabajos futuros}{125}{chapter.7}}
\@writefile{lof}{\addvspace {10\p@ }}
\@writefile{lot}{\addvspace {10\p@ }}
\newlabel{chap:conclusiones}{{7}{125}{Conclusiones y Trabajos futuros}{chapter.7}{}}
\@writefile{toc}{\contentsline {section}{\numberline {7.1}Conclusiones}{125}{section.7.1}}
\@writefile{toc}{\contentsline {subsection}{\numberline {7.1.1}Objetivos cumplidos}{126}{subsection.7.1.1}}
\@writefile{lof}{\contentsline {figure}{\numberline {7.1}{\ignorespaces Esquema de los objetivos del proyecto}}{127}{figure.7.1}}
\newlabel{fig:esquema}{{7.1}{127}{Esquema de los objetivos del proyecto}{figure.7.1}{}}
\@writefile{toc}{\contentsline {section}{\numberline {7.2}Trabajos Futuros}{127}{section.7.2}}
\@writefile{toc}{\contentsline {chapter}{\numberline {A}Configuraci\IeC {\'o}n del Entorno}{131}{appendix.Alph1}}
\@writefile{lof}{\addvspace {10\p@ }}
\@writefile{lot}{\addvspace {10\p@ }}
\newlabel{anexo1}{{A}{131}{Configuración del Entorno}{appendix.Alph1}{}}
\newlabel{anexo:configuracion}{{A}{131}{Configuración del Entorno}{appendix.Alph1}{}}
\@writefile{toc}{\contentsline {section}{\numberline {A.1}Configuraci\IeC {\'o}n del entorno software}{131}{section.Alph1.1}}
\@writefile{lof}{\contentsline {figure}{\numberline {A.1}{\ignorespaces Interfaz gr\IeC {\'a}fica Kilogui}}{132}{figure.Alph1.1}}
\newlabel{fig:kilogui}{{A.1}{132}{Interfaz gráfica Kilogui}{figure.Alph1.1}{}}
\acronymused{API}
\acronymused{OHC}
\acronymused{FTDI}
\acronymused{USB}
\acronymused{LED}
\@writefile{toc}{\contentsline {section}{\numberline {A.2}Configuraci\IeC {\'o}n del entorno hardware}{133}{section.Alph1.2}}
\newlabel{Comandos Kilobots}{{A.1}{134}{Configuración del entorno software}{Item.98}{}}
\@writefile{lot}{\contentsline {table}{\numberline {A.1}{\ignorespaces Comandos Kilobots}}{134}{table.Alph1.1}}
\@writefile{lof}{\contentsline {figure}{\numberline {A.2}{\ignorespaces Conexi\IeC {\'o}n del controlador OHC}}{135}{figure.Alph1.2}}
\newlabel{fig:OHC}{{A.2}{135}{Conexión del controlador OHC}{figure.Alph1.2}{}}
\@writefile{lof}{\contentsline {figure}{\numberline {A.3}{\ignorespaces Actualizaci\IeC {\'o}n del Firmware del controlador OHC}}{136}{figure.Alph1.3}}
\newlabel{fig:Act-OHC}{{A.3}{136}{Actualización del Firmware del controlador OHC}{figure.Alph1.3}{}}
\@writefile{lof}{\contentsline {figure}{\numberline {A.4}{\ignorespaces Encendido de los Kilobots}}{136}{figure.Alph1.4}}
\newlabel{fig:powkilobot}{{A.4}{136}{Encendido de los Kilobots}{figure.Alph1.4}{}}
\@writefile{lof}{\contentsline {figure}{\numberline {A.5}{\ignorespaces Conexi\IeC {\'o}n del cable ICSP al Controlador OHC}}{137}{figure.Alph1.5}}
\newlabel{fig:conexion-ohc}{{A.5}{137}{Conexión del cable ICSP al Controlador OHC}{figure.Alph1.5}{}}
\@writefile{lof}{\contentsline {figure}{\numberline {A.6}{\ignorespaces Conexi\IeC {\'o}n del cable ICSP a los Kilobots}}{137}{figure.Alph1.6}}
\newlabel{fig:conexion-kilobot}{{A.6}{137}{Conexión del cable ICSP a los Kilobots}{figure.Alph1.6}{}}
\@writefile{lof}{\contentsline {figure}{\numberline {A.7}{\ignorespaces Actualizaci\IeC {\'o}n del Firmware de los Kilobots}}{138}{figure.Alph1.7}}
\newlabel{fig:Act-Kilobot}{{A.7}{138}{Actualización del Firmware de los Kilobots}{figure.Alph1.7}{}}
\@writefile{lof}{\contentsline {figure}{\numberline {A.8}{\ignorespaces Cargador Kilobots}}{139}{figure.Alph1.8}}
\newlabel{fig:cargador}{{A.8}{139}{Cargador Kilobots}{figure.Alph1.8}{}}
\@writefile{lof}{\contentsline {figure}{\numberline {A.9}{\ignorespaces Opciones de Calibraci\IeC {\'o}n de los Kilobots}}{140}{figure.Alph1.9}}
\newlabel{fig:calibracion}{{A.9}{140}{Opciones de Calibración de los Kilobots}{figure.Alph1.9}{}}
\@writefile{lof}{\contentsline {figure}{\numberline {A.10}{\ignorespaces Conexi\IeC {\'o}n del cable serie de programaci\IeC {\'o}n al controlador OHC}}{141}{figure.Alph1.10}}
\newlabel{fig:deb-OHC}{{A.10}{141}{Conexión del cable serie de programación al controlador OHC}{figure.Alph1.10}{}}
\@writefile{toc}{\contentsline {section}{\numberline {A.3}Configuraci\IeC {\'o}n del entorno de ejecuci\IeC {\'o}n}{141}{section.Alph1.3}}
\@writefile{lof}{\contentsline {figure}{\numberline {A.11}{\ignorespaces Conexi\IeC {\'o}n del cable serie de programaci\IeC {\'o}n al Kilobot}}{142}{figure.Alph1.11}}
\newlabel{fig:deb-kilobot}{{A.11}{142}{Conexión del cable serie de programación al Kilobot}{figure.Alph1.11}{}}
\@writefile{toc}{\contentsline {chapter}{\numberline {B}API Kilobots}{145}{appendix.Alph2}}
\@writefile{lof}{\addvspace {10\p@ }}
\@writefile{lot}{\addvspace {10\p@ }}
\@writefile{toc}{\contentsline {section}{\numberline {B.1}Ficheros de Cabecera}{145}{section.Alph2.1}}
\@writefile{toc}{\contentsline {section}{\numberline {B.2}Estructuras de datos}{145}{section.Alph2.2}}
\@writefile{toc}{\contentsline {section}{\numberline {B.3}Variables}{146}{section.Alph2.3}}
\@writefile{toc}{\contentsline {section}{\numberline {B.4}Funciones}{147}{section.Alph2.4}}
\citation{Kilobotics}
\@writefile{toc}{\contentsline {section}{\numberline {B.5}Macros}{148}{section.Alph2.5}}
\newlabel{code:depuracion}{{B.1}{148}{Macro de depuración}{lstlisting.Alph2.1}{}}
\@writefile{lol}{\contentsline {lstlisting}{\numberline {B.1}Macro de depuraci\IeC {\'o}n}{148}{lstlisting.Alph2.1}}
\@writefile{toc}{\contentsline {section}{\numberline {B.6}Ejemplos}{149}{section.Alph2.6}}
\@writefile{toc}{\contentsline {subsection}{\numberline {B.6.1}Parpadeo}{150}{subsection.Alph2.6.1}}
\newlabel{code:parpadeo}{{B.2}{150}{Ejemplo de parpadeo del led de los Kilobots}{lstlisting.Alph2.2}{}}
\@writefile{lol}{\contentsline {lstlisting}{\numberline {B.2}Ejemplo de parpadeo del led de los Kilobots}{150}{lstlisting.Alph2.2}}
\@writefile{toc}{\contentsline {subsection}{\numberline {B.6.2}Movimiento}{151}{subsection.Alph2.6.2}}
\newlabel{code:movimiento}{{B.3}{151}{Código que implementa el movimiento aleatorio en los Kilobots}{lstlisting.Alph2.3}{}}
\@writefile{lol}{\contentsline {lstlisting}{\numberline {B.3}C\IeC {\'o}digo que implementa el movimiento aleatorio en los Kilobots}{151}{lstlisting.Alph2.3}}
\@writefile{toc}{\contentsline {subsection}{\numberline {B.6.3}Comunicacion}{152}{subsection.Alph2.6.3}}
\newlabel{code:speaker}{{B.4}{152}{Código del emisor}{lstlisting.Alph2.4}{}}
\@writefile{lol}{\contentsline {lstlisting}{\numberline {B.4}C\IeC {\'o}digo del emisor}{152}{lstlisting.Alph2.4}}
\newlabel{code:receiver}{{B.5}{153}{Código del receptor}{lstlisting.Alph2.5}{}}
\@writefile{lol}{\contentsline {lstlisting}{\numberline {B.5}C\IeC {\'o}digo del receptor}{153}{lstlisting.Alph2.5}}
\bibdata{main}
\bibcite{ComportamientosCoordinados}{AB}
\bibcite{Kilolib}{A.C}
\bibcite{EC}{AE03}
\bibcite{AMRobots}{AMR04}
\bibcite{AMRLewis}{AMR06}
\bibcite{AntCo}{Ant04}
\bibcite{aprendizaje}{apr00}
\bibcite{Latex}{BC03}
\bibcite{Bekey}{Bek05}
\bibcite{Brassard}{Bra97}
\bibcite{Gen}{Car12}
\bibcite{Cookbook}{Coo13}
\bibcite{OrigenEspecies}{Dar59}
\bibcite{AVRDUDE}{Dea14}
\bibcite{NegotiatedFormations}{DJN}
\bibcite{AVRLibc}{Dox12}
\bibcite{draw}{dra}
\@writefile{toc}{\contentsline {chapter}{Referencias}{155}{appendix*.9}}
\bibcite{finite-time_switchingtopologies}{FJ}
\bibcite{Finite-time_multiagent-systems}{FX}
\bibcite{HaciaFormacionesDinamicas}{Hac10}
\bibcite{Lider}{HGT}
\bibcite{Hormigas}{Hor99}
\bibcite{GeneralAlgorithm}{JF}
\bibcite{Reinas}{JF00}
\bibcite{ModelingandControl}{JPDa}
\bibcite{ControllingFormations}{JPDb}
\bibcite{KilobotsMan}{KT12}
\bibcite{FormationControl}{KYT}
\bibcite{Paxos}{Lam}
\bibcite{clasr}{Mac}
\bibcite{ArtKilobots}{MR11}
\bibcite{ImitationLife}{N.F04}
\bibcite{AlgoritmosHormigas}{NRH}
\bibcite{robots}{Oll01}
\bibcite{Python}{Pyt11}
\bibcite{refuerzo}{ref98}
\bibcite{Inteligencia}{RN04}
\bibcite{Congen}{SK09}
\bibcite{Finite-time_double-integrator}{SL}
\bibcite{DynamicTeam}{SLS}
\bibcite{Swarm}{Swa01}
\bibcite{Tamassia}{Tam10}
\bibcite{Behaviour-Based}{TB}
\bibcite{Kilobotics}{Uni}
\bibcite{Agents}{Woo01}
\bibcite{XP}{XP99}
\bibcite{C}{yDR91}
