\relax 
\citation{IEEEhowto:RHN11}
\citation{IEEEhowto:WebHarvard}
\citation{IEEEhowto:MaKi12}
\citation{IEEEhowto:TaHa11}
\citation{IEEEhowto:Min11}
\citation{IEEEhowto:FRC10}
\citation{IEEEhowto:DBJ13}
\citation{IEEEhowto:DiJa09}
\citation{IEEEhowto:CaMo12}
\citation{IEEEhowto:KeEb01}
\citation{IEEEhowto:BDT99}
\citation{IEEEhowto:DoSt04}
\@writefile{toc}{\contentsline {section}{\numberline {I}Introduction}{1}}
\citation{IEEEhowto:Lam01}
\citation{IEEEhowto:FrMa02}
\citation{IEEEhowto:ArBa99}
\citation{IEEEhowto:HSW10}
\citation{IEEEhowto:MHF10}
\citation{IEEEhowto:XWC09}
\citation{IEEEhowto:JiWa09}
\citation{IEEEhowto:LDL11}
\citation{IEEEhowto:HGT04}
\citation{IEEEhowto:JPDb}
\citation{IEEEhowto:JPDa}
\citation{IEEEhowto:BGA}
\citation{IEEEhowto:SmBu09}
\citation{IEEEhowto:NaSu04}
\citation{IEEEhowto:TaCh}
\@writefile{lof}{\contentsline {figure}{\numberline {1}{\ignorespaces Approaches in Establishment and Control of Robot Formations. \relax }}{2}}
\providecommand*\caption@xref[2]{\@setref\relax\@undefined{#1}}
\newlabel{Approaches}{{1}{2}}
\@writefile{toc}{\contentsline {section}{\numberline {II}Related Work}{2}}
\citation{IEEEhowto:Woo01}
\citation{IEEEhowto:Woo01}
\@writefile{toc}{\contentsline {section}{\numberline {III}Problem Definition}{3}}
\newlabel{def_ag}{{2}{3}}
\newlabel{environment}{{3}{4}}
\newlabel{objective}{{4}{4}}
\newlabel{eq13}{{7}{4}}
\@writefile{toc}{\contentsline {section}{\numberline {IV}Nature-Inspired Algorithm}{4}}
\@writefile{lof}{\contentsline {figure}{\numberline {2}{\ignorespaces The complete process to solve establishment and control mobile robot formations. \relax }}{4}}
\newlabel{Problem}{{2}{4}}
\@writefile{lof}{\contentsline {figure}{\numberline {3}{\ignorespaces Automaton for the nature-inspired proposal.\relax }}{4}}
\newlabel{Automaton}{{3}{4}}
\newlabel{setagents}{{8}{4}}
\newlabel{start_state}{{9}{4}}
\newlabel{Discovery_Eq}{{10}{5}}
\newlabel{Heap}{{11}{5}}
\@writefile{lot}{\contentsline {table}{\numberline {I}{\ignorespaces Neighbours Heap Structure\relax }}{5}}
\newlabel{neighbours_heap}{{I}{5}}
\@writefile{lof}{\contentsline {figure}{\numberline {4}{\ignorespaces Discovery Process.\relax }}{5}}
\newlabel{Discovery}{{4}{5}}
\newlabel{variaciones}{{12}{5}}
\newlabel{Fitness_Propuesta}{{13}{5}}
\@writefile{loa}{\contentsline {algorithm}{\numberline {1}{\ignorespaces Discovery Protocol for an agent $a_i$\relax }}{5}}
\newlabel{code:descubrimiento}{{1}{5}}
\@writefile{lot}{\contentsline {table}{\numberline {II}{\ignorespaces Formations Heap Structure for an $a_i$ agent\relax }}{6}}
\newlabel{Proposals_Heap}{{II}{6}}
\@writefile{loa}{\contentsline {algorithm}{\numberline {2}{\ignorespaces Formations Generation\relax }}{6}}
\newlabel{code:seleccioncfg}{{2}{6}}
\newlabel{Total_Fitness}{{14}{6}}
\bibcite{IEEEhowto:RHN11}{1}
\@writefile{lot}{\contentsline {table}{\numberline {III}{\ignorespaces Proposals Heap for an $a_i$ agent\relax }}{7}}
\newlabel{Proposals_Table}{{III}{7}}
\@writefile{lof}{\contentsline {figure}{\numberline {5}{\ignorespaces Graphic representation of Consensus process.\relax }}{7}}
\newlabel{Consensus}{{5}{7}}
\@writefile{loa}{\contentsline {algorithm}{\numberline {3}{\ignorespaces Consensus\relax }}{7}}
\newlabel{code:consenso}{{3}{7}}
\@writefile{loa}{\contentsline {algorithm}{\numberline {4}{\ignorespaces Leader Selection\relax }}{7}}
\newlabel{code:leader}{{4}{7}}
\newlabel{solution_alg}{{15}{7}}
\newlabel{solution}{{IV}{7}}
\@writefile{toc}{\contentsline {section}{\numberline {V}Results}{7}}
\@writefile{toc}{\contentsline {section}{\numberline {VI}Conclusions and Further works}{7}}
\bibcite{IEEEhowto:WebHarvard}{2}
\bibcite{IEEEhowto:MaKi12}{3}
\bibcite{IEEEhowto:TaHa11}{4}
\bibcite{IEEEhowto:Min11}{5}
\bibcite{IEEEhowto:FRC10}{6}
\bibcite{IEEEhowto:DBJ13}{7}
\bibcite{IEEEhowto:DiJa09}{8}
\bibcite{IEEEhowto:CaMo12}{9}
\bibcite{IEEEhowto:KeEb01}{10}
\bibcite{IEEEhowto:BDT99}{11}
\bibcite{IEEEhowto:DoSt04}{12}
\bibcite{IEEEhowto:Lam01}{13}
\bibcite{IEEEhowto:FrMa02}{14}
\bibcite{IEEEhowto:ArBa99}{15}
\bibcite{IEEEhowto:HSW10}{16}
\bibcite{IEEEhowto:MHF10}{17}
\bibcite{IEEEhowto:XWC09}{18}
\bibcite{IEEEhowto:JiWa09}{19}
\bibcite{IEEEhowto:LDL11}{20}
\bibcite{IEEEhowto:HGT04}{21}
\bibcite{IEEEhowto:JPDb}{22}
\bibcite{IEEEhowto:JPDa}{23}
\bibcite{IEEEhowto:BGA}{24}
\bibcite{IEEEhowto:SmBu09}{25}
\bibcite{IEEEhowto:NaSu04}{26}
\bibcite{IEEEhowto:TaCh}{27}
\bibcite{IEEEhowto:Woo01}{28}
\@writefile{toc}{\contentsline {section}{References}{8}}
\@writefile{toc}{\contentsline {section}{Biographies}{8}}
\@writefile{toc}{\contentsline {subsection}{Ester del Castillo Herrera}{8}}
\@writefile{toc}{\contentsline {subsection}{Luis Jim\IeC {\'e}nez Linares}{8}}
\@writefile{toc}{\contentsline {subsection}{Julio Alberto L\IeC {\'o}pez G\IeC {\'o}mez}{8}}
