\select@language {spanish}
\contentsline {section}{\numberline {1}INTRODUCCI\IeC {\'O}N}{2}{section.1}
\contentsline {section}{\numberline {2}TECNOLOG\IeC {\'I}A ESPEC\IeC {\'I}FICA / INTENSIFICACI\IeC {\'O}N / ITINERARIO CURSADO POR EL ALUMNO}{3}{section.2}
\contentsline {section}{\numberline {3}OBJETIVOS}{4}{section.3}
\contentsline {section}{\numberline {4}M\IeC {\'E}TODO Y FASES DE TRABAJO}{6}{section.4}
\contentsline {section}{\numberline {5}MEDIOS QUE SE PRETENDEN UTILIZAR}{8}{section.5}
\contentsline {subsection}{\numberline {5.1}Medios Hardware}{8}{subsection.5.1}
\contentsline {subsection}{\numberline {5.2}Medios Software}{8}{subsection.5.2}
