This is BibTeX, Version 0.99d (TeX Live 2014/Debian)
Capacity: max_strings=35307, hash_size=35307, hash_prime=30011
The top-level auxiliary file: main.aux
The style file: alpha.bst
Database file #1: main.bib
Warning--to sort, need author, editor, or key in Hormigas
Too many commas in name 1 of "I. Ranatunga, J. Rajruangrabin, D. Popa, F. Makedon" for entry Zeno
while executing---line 1185 of file alpha.bst
Too many commas in name 1 of "I. Ranatunga, J. Rajruangrabin, D. Popa, F. Makedon" for entry Zeno
while executing---line 1185 of file alpha.bst
Warning--empty author and editor in Hormigas
Too many commas in name 1 of "I. Ranatunga, J. Rajruangrabin, D. Popa, F. Makedon" for entry Zeno
while executing---line 1250 of file alpha.bst
Warning--empty publisher in KilobotsMan
You've used 8 entries,
            2543 wiz_defined-function locations,
            603 strings with 5365 characters,
and the built_in function-call counts, 2299 in all, are:
= -- 219
> -- 57
< -- 8
+ -- 14
- -- 14
* -- 121
:= -- 377
add.period$ -- 24
call.type$ -- 8
change.case$ -- 37
chr.to.int$ -- 8
cite$ -- 12
duplicate$ -- 126
empty$ -- 208
format.name$ -- 23
if$ -- 486
int.to.chr$ -- 1
int.to.str$ -- 0
missing$ -- 8
newline$ -- 42
num.names$ -- 21
pop$ -- 56
preamble$ -- 1
purify$ -- 47
quote$ -- 0
skip$ -- 94
stack$ -- 0
substring$ -- 85
swap$ -- 15
text.length$ -- 8
text.prefix$ -- 2
top$ -- 0
type$ -- 48
warning$ -- 3
while$ -- 16
width$ -- 11
write$ -- 99
(There were 3 error messages)
